{
    "items": [
        {
            "body": "The tools they had been programmed to use were simple enough, yet they could change this world and make the man-apes its masters. The most primitive was the hand-held stone, that multiplied manyfold the power of a blow. Then there was the bone club, that lengthened the reach and could provide a buffer against the fangs or claws of angry animals. With these weapons, the limitless food that roamed the savannas was theirs to take.",
            "category": "string",
            "category_id": 1,
            "id": 4,
            "pub_date": "2016-06-11T16:38:51.508791",
            "title": "The Leopard"
        },
        {
            "body": "The drought had lasted now for ten million years, and the reign of the terrible lizards had long since ended. Here on the Equator, in the continent which would one day be known as Africa, the battle for existence had reached a new climax of ferocity, and the victor was not yet in sight. In this barren and desiccated land, only the small or the swift or the fierce could flourish, or even hope to survive.",
            "category": "string",
            "category_id": 1,
            "id": 6,
            "pub_date": "2020-06-22T21:28:49.100655",
            "title": "The Road to Extinction"
        },
        {
            "body": "The drought had lasted now for ten million years, and the reign of the terrible lizards had long since ended. Here on the Equator, in the continent which would one day be known as Africa, the battle for existence had reached a new climax of ferocity, and the victor was not yet in sight. In this barren and desiccated land, only the small or the swift or the fierce could flourish, or even hope to survive.",
            "category": "string",
            "category_id": 1,
            "id": 7,
            "pub_date": "2020-06-22T21:33:57.100399",
            "title": "The Road to Extinction"
        },
        {
            "body": "The drought had lasted now for ten million years, and the reign of the terrible lizards had long since ended. Here on the Equator, in the continent which would one day be known as Africa, the battle for existence had reached a new climax of ferocity, and the victor was not yet in sight. In this barren and desiccated land, only the small or the swift or the fierce could flourish, or even hope to survive.",
            "category": "string",
            "category_id": 1,
            "id": 8,
            "pub_date": "2020-06-22T21:35:46.297598",
            "title": "The Road to Extinction"
        },
        {
            "body": "Late that night, Moon-Watcher suddenly awoke. Tired out by the day\u2019s exertions and disasters, he had been sleeping more soundly than usual, yet he was instantly alert at the first faint scrabbling down in the valley.",
            "category": "string",
            "category_id": 1,
            "id": 9,
            "pub_date": "2020-06-22T21:37:28.998255",
            "title": "The New Rock"
        },
        {
            "body": "The drought had lasted now for ten million years, and the reign of the terrible lizards had long since ended. Here on the Equator, in the continent which would one day be known as Africa, the battle for existence had reached a new climax of ferocity, and the victor was not yet in sight. In this barren and desiccated land, only the small or the swift or the fierce could flourish, or even hope to survive.",
            "category": "ts",
            "category_id": 101,
            "id": 10,
            "pub_date": "2020-06-22T21:38:22.866327",
            "title": "The Road to Extinction"
        },
        {
            "body": "Late that night, Moon-Watcher suddenly awoke. Tired out by the day\u2019s exertions and disasters, he had been sleeping more soundly than usual, yet he was instantly alert at the first faint scrabbling down in the valley.",
            "category": "string",
            "category_id": 1,
            "id": 11,
            "pub_date": "2020-06-22T21:39:09.612247",
            "title": "The New Rock"
        },
        {
            "body": "The drought had lasted now for ten million years, and the reign of the terrible lizards had long since ended. Here on the Equator, in the continent which would one day be known as Africa, the battle for existence had reached a new climax of ferocity, and the victor was not yet in sight. In this barren and desiccated land, only the small or the swift or the fierce could flourish, or even hope to survive.",
            "category": "string",
            "category_id": 1,
            "id": 13,
            "pub_date": "2020-06-22T21:42:08.084016",
            "title": "The Road to Extinction"
        },
        {
            "body": "The drought had lasted now for ten million years, and the reign of the terrible lizards had long since ended. Here on the Equator, in the continent which would one day be known as Africa, the battle for existence had reached a new climax of ferocity, and the victor was not yet in sight. In this barren and desiccated land, only the small or the swift or the fierce could flourish, or even hope to survive.",
            "category": "str",
            "category_id": 100,
            "id": 14,
            "pub_date": "2020-06-22T21:44:41.151282",
            "title": "The Road to Extinction"
        },
        {
            "body": "The drought had lasted now for ten million years, and the reign of the terrible lizards had long since ended. Here on the Equator, in the continent which would one day be known as Africa, the battle for existence had reached a new climax of ferocity, and the victor was not yet in sight. In this barren and desiccated land, only the small or the swift or the fierce could flourish, or even hope to survive.",
            "category": "str",
            "category_id": 100,
            "id": 15,
            "pub_date": "2020-06-22T21:47:02.630307",
            "title": "The Road to Extinction"
        }
    ],
    "page": 1,
    "pages": 2,
    "per_page": 10,
    "total": 19
}
